\relax 
\@writefile{toc}{\contentsline {section}{\numberline {1}Introduction}{1}}
\newlabel{eq:Q-learning}{{1}{1}}
\newlabel{eq:Sarsa}{{2}{1}}
\@writefile{toc}{\contentsline {section}{\numberline {2}Results}{1}}
\@writefile{lof}{\contentsline {figure}{\numberline {1}{\ignorespaces Q-learning}}{1}}
\newlabel{fig:Q-learning}{{1}{1}}
\@writefile{lof}{\contentsline {figure}{\numberline {2}{\ignorespaces episode 001}}{2}}
\newlabel{fig:ep001}{{2}{2}}
\@writefile{lof}{\contentsline {figure}{\numberline {3}{\ignorespaces episode 100}}{2}}
\newlabel{fig:ep100}{{3}{2}}
\@writefile{lof}{\contentsline {figure}{\numberline {4}{\ignorespaces episode 200}}{3}}
\newlabel{fig:ep200}{{4}{3}}
\@writefile{lof}{\contentsline {figure}{\numberline {5}{\ignorespaces episode 300}}{3}}
\newlabel{fig:ep300}{{5}{3}}
\@writefile{lof}{\contentsline {figure}{\numberline {6}{\ignorespaces episode 330}}{4}}
\newlabel{fig:ep330}{{6}{4}}
\@writefile{lof}{\contentsline {figure}{\numberline {7}{\ignorespaces episode 333}}{4}}
\newlabel{fig:ep333}{{7}{4}}
\@writefile{lof}{\contentsline {figure}{\numberline {8}{\ignorespaces episode 334}}{5}}
\newlabel{fig:ep334}{{8}{5}}
\@writefile{lof}{\contentsline {figure}{\numberline {9}{\ignorespaces episode 335}}{5}}
\newlabel{fig:ep335}{{9}{5}}
\@writefile{lof}{\contentsline {figure}{\numberline {10}{\ignorespaces episode 336}}{6}}
\newlabel{fig:ep336}{{10}{6}}
