\relax 
\@writefile{toc}{\contentsline {section}{\numberline {1}Introduction}{1}}
\newlabel{eq:Q-learning}{{1}{1}}
\@writefile{loa}{\contentsline {algorithm}{\numberline {1}{\ignorespaces Q-learning, approximate solution}}{1}}
